Chapter 2 dplyr and tidyr | Hitchhiker’s Guide to the Tidyverse (and Statistical Learning in R)
…
2.2 tidyr and relational data

Add fielding info to batting tibble.

(batpos <- gt_500 %>% 
   left_join(pos_tot, by = "playerID", suffix = c(".h", ".f")))

## # A tibble: 2,667 x 19
##    playerID   G.h    AB     R     H   X2B   X3B    HR   RBI    SB    CS
##    <chr>    <int> <int> <int> <int> <int> <int> <int> <int> <int> <int>
##  1 aaronha…  3298 12364  2174  3771   624    98   755  2297   240    73
##  2 abbotku…   702  2044   273   523   109    23    62   242    22    11
##  3 abernte…   681   181    12    25     3     0     0     9     0     0
##  4 abramca…   521  1543   246   422    62    19    32   134    11    18
##  5 abreubo…  2425  8480  1453  2470   574    59   288  1363   400   128
##  6 abreujo…   742  2913   398   858   180    13   146   488     8     3
##  7 ackledu…   635  2125   261   512    94    18    46   216    31    12
##  8 adairje…  1165  4019   378  1022   163    19    57   366    29    29
##  9 adamsbo…   797  2604   395   701   107    31    25   188    25    30
## 10 adamsgl…   661  1617   152   452    79     5    34   225     6    10
## # … with 2,657 more rows, and 8 more variables: BB <int>, SO <int>,
## #   POS <chr>, G.f <int>, PO <int>, A <int>, E <int>, DP <int>
…
NAs are likely DHs.

pos_nas <- batpos %>% 
  filter(is.na(POS))
batting %>% 
  inner_join(pos_nas, by = "playerID")

## # A tibble: 26 x 40
##    playerID yearID stint teamID lgID      G  AB.x   R.x   H.x X2B.x X3B.x
##    <chr>     <int> <int> <fct>  <fct> <int> <int> <int> <int> <int> <int>
##  1 moraljo…   1973     1 OAK    AL        6    14     0     4     1     0
##  2 moraljo…   1973     2 MON    NL        5     5     0     2     0     0
##  3 moraljo…   1974     1 MON    NL       25    26     3     7     4     0
##  4 moraljo…   1975     1 MON    NL       93   163    18    49     6     1
##  5 moraljo…   1976     1 MON    NL      104   158    12    50    11     0
##  6 moraljo…   1977     1 MON    NL       65    74     3    15     4     1
##  7 moraljo…   1978     1 MIN    AL      101   242    22    76    13     1
##  8 moraljo…   1979     1 MIN    AL       92   191    21    51     5     1
##  9 moraljo…   1980     1 MIN    AL       97   241    36    73    17     2
## 10 moraljo…   1981     1 BAL    AL       38    86     6    21     3     0
## # … with 16 more rows, and 29 more variables: HR.x <int>, RBI.x <int>,
## #   SB.x <int>, CS.x <int>, BB.x <int>, SO.x <int>, IBB <int>, HBP <int>,
## #   SH <int>, SF <int>, GIDP <int>, G.h <int>, AB.y <int>, R.y <int>,
## #   H.y <int>, X2B.y <int>, X3B.y <int>, HR.y <int>, RBI.y <int>,
## #   SB.y <int>, CS.y <int>, BB.y <int>, SO.y <int>, POS <chr>, G.f <int>,
## #   PO <int>, A <int>, E <int>, DP <int>
…
