Chapter 3 dplyr closures and rlang | Hitchhiker’s Guide to the Tidyverse (and Statistical Learning in R)
…
3.1 Trying to understand the closure functions

Using example("function") is very helpful.

is_col <- names(select_if(batpos, is.double))
batpos[is_col] <- batpos[is_col] %>%
  map(round, digits = 4)

batpos %>% 
  select(contains("B"))

## # A tibble: 2,665 x 7
##       AB   X2B   X3B   RBI    SB    BB    BA
##    <int> <int> <int> <int> <int> <int> <dbl>
##  1 12364   624    98  2297   240  1402 0.305
##  2  2044   109    23   242    22   133 0.256
##  3   181     3     0     9     0     6 0.138
##  4  1543    62    19   134    11   288 0.274
##  5  8480   574    59  1363   400  1476 0.291
##  6  2913   180    13   488     8   209 0.294
##  7  2125    94    18   216    31   194 0.241
##  8  4019   163    19   366    29   208 0.254
##  9  2604   107    31   188    25   277 0.269
## 10  1617    79     5   225     6   111 0.280
## # … with 2,655 more rows

batpos %>% 
  select_all(toupper)

## # A tibble: 2,665 x 22
##    PLAYERID   G.X    AB     R     H   X2B   X3B    HR   RBI    SB    CS
##    <chr>    <int> <int> <int> <int> <int> <int> <int> <int> <int> <int>
##  1 aaronha…  3298 12364  2174  3771   624    98   755  2297   240    73
##  2 abbotku…   702  2044   273   523   109    23    62   242    22    11
##  3 abernte…   681   181    12    25     3     0     0     9     0     0
##  4 abramca…   521  1543   246   422    62    19    32   134    11    18
##  5 abreubo…  2425  8480  1453  2470   574    59   288  1363   400   128
##  6 abreujo…   742  2913   398   858   180    13   146   488     8     3
##  7 ackledu…   635  2125   261   512    94    18    46   216    31    12
##  8 adairje…  1165  4019   378  1022   163    19    57   366    29    29
##  9 adamsbo…   797  2604   395   701   107    31    25   188    25    30
## 10 adamsgl…   661  1617   152   452    79     5    34   225     6    10
## # … with 2,655 more rows, and 11 more variables: BB <int>, SO <int>,
## #   POS <chr>, G.Y <int>, PO <int>, A <int>, E <int>, DP <int>, BA <dbl>,
## #   ERR <dbl>, HRR <dbl>

batpos %>% 
  drop_na() %>% 
  #select_if(function(x) sum(x == 0) > 100, tolower)
  select_if(function(x) sum(x == 0) > 100, tolower)

## # A tibble: 2,648 x 8
##      x2b   x3b    hr   rbi    sb    cs    bb     hrr
##    <int> <int> <int> <int> <int> <int> <int>   <dbl>
##  1   624    98   755  2297   240    73  1402 0.0611 
##  2   109    23    62   242    22    11   133 0.0303 
##  3     3     0     0     9     0     0     6 0      
##  4    62    19    32   134    11    18   288 0.0207 
##  5   574    59   288  1363   400   128  1476 0.034  
##  6   180    13   146   488     8     3   209 0.0501 
##  7    94    18    46   216    31    12   194 0.0216 
##  8   163    19    57   366    29    29   208 0.0142 
##  9   107    31    25   188    25    30   277 0.00960
## 10    79     5    34   225     6    10   111 0.021  
## # … with 2,638 more rows
…
## playerID      G.x       AB        R        H      X2B      X3B       HR 
##    FALSE    FALSE    FALSE    FALSE    FALSE     TRUE     TRUE     TRUE 
##      RBI       SB       CS       BB       SO      POS      G.y       PO 
##     TRUE     TRUE     TRUE     TRUE    FALSE    FALSE    FALSE    FALSE 
##        A        E       DP       BA      Err      HRR 
##    FALSE    FALSE    FALSE    FALSE    FALSE     TRUE

batpos %>% 
  drop_na() %>% 
  rename_if(function(x) ! sum(x == 0) > 100, tolower)

## # A tibble: 2,648 x 22
##    playerid   g.x    ab     r     h   X2B   X3B    HR   RBI    SB    CS
##    <chr>    <int> <int> <int> <int> <int> <int> <int> <int> <int> <int>
##  1 aaronha…  3298 12364  2174  3771   624    98   755  2297   240    73
##  2 abbotku…   702  2044   273   523   109    23    62   242    22    11
##  3 abernte…   681   181    12    25     3     0     0     9     0     0
##  4 abramca…   521  1543   246   422    62    19    32   134    11    18
##  5 abreubo…  2425  8480  1453  2470   574    59   288  1363   400   128
##  6 abreujo…   742  2913   398   858   180    13   146   488     8     3
##  7 ackledu…   635  2125   261   512    94    18    46   216    31    12
##  8 adairje…  1165  4019   378  1022   163    19    57   366    29    29
##  9 adamsbo…   797  2604   395   701   107    31    25   188    25    30
## 10 adamsgl…   661  1617   152   452    79     5    34   225     6    10
## # … with 2,638 more rows, and 11 more variables: BB <int>, so <int>,
## #   pos <chr>, g.y <int>, po <int>, a <int>, e <int>, dp <int>, ba <dbl>,
## #   err <dbl>, HRR <dbl>

batpos %>% 
  select_at(c(2, 4, 6, 8, 10, 12, 14), tolower) %>% 
  rename_at(c(3,5,7), toupper)

## # A tibble: 2,665 x 7
##      g.x     r   X2B    hr    SB    bb POS  
##    <int> <int> <int> <int> <int> <int> <chr>
##  1  3298  2174   624   755   240  1402 OF   
##  2   702   273   109    62    22   133 SS   
##  3   681    12     3     0     0     6 P    
##  4   521   246    62    32    11   288 OF   
##  5  2425  1453   574   288   400  1476 OF   
##  6   742   398   180   146     8   209 1B   
##  7   635   261    94    46    31   194 2B   
##  8  1165   378   163    57    29   208 2B   
##  9   797   395   107    25    25   277 3B   
## 10   661   152    79    34     6   111 OF   
## # … with 2,655 more rows

batpos %>% 
#  select_all(toupper)
  select_all(list(~ toupper(.)))

## # A tibble: 2,665 x 22
##    PLAYERID   G.X    AB     R     H   X2B   X3B    HR   RBI    SB    CS
##    <chr>    <int> <int> <int> <int> <int> <int> <int> <int> <int> <int>
##  1 aaronha…  3298 12364  2174  3771   624    98   755  2297   240    73
##  2 abbotku…   702  2044   273   523   109    23    62   242    22    11
##  3 abernte…   681   181    12    25     3     0     0     9     0     0
##  4 abramca…   521  1543   246   422    62    19    32   134    11    18
##  5 abreubo…  2425  8480  1453  2470   574    59   288  1363   400   128
##  6 abreujo…   742  2913   398   858   180    13   146   488     8     3
##  7 ackledu…   635  2125   261   512    94    18    46   216    31    12
##  8 adairje…  1165  4019   378  1022   163    19    57   366    29    29
##  9 adamsbo…   797  2604   395   701   107    31    25   188    25    30
## 10 adamsgl…   661  1617   152   452    79     5    34   225     6    10
## # … with 2,655 more rows, and 11 more variables: BB <int>, SO <int>,
## #   POS <chr>, G.Y <int>, PO <int>, A <int>, E <int>, DP <int>, BA <dbl>,
## #   ERR <dbl>, HRR <dbl>

batpos %>% 
#  select_all(toupper)
#  select_all(list(~ paste(., "0", sep="")))
  select_all(~ paste(., "0", sep=""))

## # A tibble: 2,665 x 22
##    playerID0  G.x0   AB0    R0    H0  X2B0  X3B0   HR0  RBI0   SB0   CS0
##    <chr>     <int> <int> <int> <int> <int> <int> <int> <int> <int> <int>
##  1 aaronha01  3298 12364  2174  3771   624    98   755  2297   240    73
##  2 abbotku01   702  2044   273   523   109    23    62   242    22    11
##  3 abernte02   681   181    12    25     3     0     0     9     0     0
##  4 abramca01   521  1543   246   422    62    19    32   134    11    18
##  5 abreubo01  2425  8480  1453  2470   574    59   288  1363   400   128
##  6 abreujo02   742  2913   398   858   180    13   146   488     8     3
##  7 ackledu01   635  2125   261   512    94    18    46   216    31    12
##  8 adairje01  1165  4019   378  1022   163    19    57   366    29    29
##  9 adamsbo03   797  2604   395   701   107    31    25   188    25    30
## 10 adamsgl01   661  1617   152   452    79     5    34   225     6    10
## # … with 2,655 more rows, and 11 more variables: BB0 <int>, SO0 <int>,
## #   POS0 <chr>, G.y0 <int>, PO0 <int>, A0 <int>, E0 <int>, DP0 <int>,
## #   BA0 <dbl>, Err0 <dbl>, HRR0 <dbl>

batpos %>% 
#  select_if(is.numeric, ~ paste(., "new", sep="_"))
  mutate_if(is.numeric, function(x) log(x + 1))

## # A tibble: 2,665 x 22
##    playerID   G.x    AB     R     H   X2B   X3B    HR   RBI    SB    CS
##    <chr>    <dbl> <dbl> <dbl> <dbl> <dbl> <dbl> <dbl> <dbl> <dbl> <dbl>
##  1 aaronha…  8.10  9.42  7.68  8.24  6.44  4.60  6.63  7.74  5.48  4.30
##  2 abbotku…  6.56  7.62  5.61  6.26  4.70  3.18  4.14  5.49  3.14  2.48
##  3 abernte…  6.53  5.20  2.56  3.26  1.39  0     0     2.30  0     0   
##  4 abramca…  6.26  7.34  5.51  6.05  4.14  3.00  3.50  4.91  2.48  2.94
##  5 abreubo…  7.79  9.05  7.28  7.81  6.35  4.09  5.67  7.22  5.99  4.86
##  6 abreujo…  6.61  7.98  5.99  6.76  5.20  2.64  4.99  6.19  2.20  1.39
##  7 ackledu…  6.46  7.66  5.57  6.24  4.55  2.94  3.85  5.38  3.47  2.56
##  8 adairje…  7.06  8.30  5.94  6.93  5.10  3.00  4.06  5.91  3.40  3.40
##  9 adamsbo…  6.68  7.87  5.98  6.55  4.68  3.47  3.26  5.24  3.26  3.43
## 10 adamsgl…  6.50  7.39  5.03  6.12  4.38  1.79  3.56  5.42  1.95  2.40
## # … with 2,655 more rows, and 11 more variables: BB <dbl>, SO <dbl>,
## #   POS <chr>, G.y <dbl>, PO <dbl>, A <dbl>, E <dbl>, DP <dbl>, BA <dbl>,
## #   Err <dbl>, HRR <dbl>

batpos %>% 
  rename_if(is.numeric, ~ paste(., "N", sep=""))

## # A tibble: 2,665 x 22
##    playerID  G.xN   ABN    RN    HN  X2BN  X3BN   HRN  RBIN   SBN   CSN
##    <chr>    <int> <int> <int> <int> <int> <int> <int> <int> <int> <int>
##  1 aaronha…  3298 12364  2174  3771   624    98   755  2297   240    73
##  2 abbotku…   702  2044   273   523   109    23    62   242    22    11
##  3 abernte…   681   181    12    25     3     0     0     9     0     0
##  4 abramca…   521  1543   246   422    62    19    32   134    11    18
##  5 abreubo…  2425  8480  1453  2470   574    59   288  1363   400   128
##  6 abreujo…   742  2913   398   858   180    13   146   488     8     3
##  7 ackledu…   635  2125   261   512    94    18    46   216    31    12
##  8 adairje…  1165  4019   378  1022   163    19    57   366    29    29
##  9 adamsbo…   797  2604   395   701   107    31    25   188    25    30
## 10 adamsgl…   661  1617   152   452    79     5    34   225     6    10
## # … with 2,655 more rows, and 11 more variables: BBN <int>, SON <int>,
## #   POS <chr>, G.yN <int>, PON <int>, AN <int>, EN <int>, DPN <int>,
## #   BAN <dbl>, ErrN <dbl>, HRRN <dbl>

batpos %>% 
  rename_at(vars(contains("B")), ~ tolower(.))

## # A tibble: 2,665 x 22
##    playerID   G.x    ab     R     H   x2b   x3b    HR   rbi    sb    CS
##    <chr>    <int> <int> <int> <int> <int> <int> <int> <int> <int> <int>
##  1 aaronha…  3298 12364  2174  3771   624    98   755  2297   240    73
##  2 abbotku…   702  2044   273   523   109    23    62   242    22    11
##  3 abernte…   681   181    12    25     3     0     0     9     0     0
##  4 abramca…   521  1543   246   422    62    19    32   134    11    18
##  5 abreubo…  2425  8480  1453  2470   574    59   288  1363   400   128
##  6 abreujo…   742  2913   398   858   180    13   146   488     8     3
##  7 ackledu…   635  2125   261   512    94    18    46   216    31    12
##  8 adairje…  1165  4019   378  1022   163    19    57   366    29    29
##  9 adamsbo…   797  2604   395   701   107    31    25   188    25    30
## 10 adamsgl…   661  1617   152   452    79     5    34   225     6    10
## # … with 2,655 more rows, and 11 more variables: bb <int>, SO <int>,
## #   POS <chr>, G.y <int>, PO <int>, A <int>, E <int>, DP <int>, ba <dbl>,
## #   Err <dbl>, HRR <dbl>

batpos %>% 
  select(contains("B")) %>% 
  rename_all(~ tolower(.))

## # A tibble: 2,665 x 7
##       ab   x2b   x3b   rbi    sb    bb    ba
##    <int> <int> <int> <int> <int> <int> <dbl>
##  1 12364   624    98  2297   240  1402 0.305
##  2  2044   109    23   242    22   133 0.256
##  3   181     3     0     9     0     6 0.138
##  4  1543    62    19   134    11   288 0.274
##  5  8480   574    59  1363   400  1476 0.291
##  6  2913   180    13   488     8   209 0.294
##  7  2125    94    18   216    31   194 0.241
##  8  4019   163    19   366    29   208 0.254
##  9  2604   107    31   188    25   277 0.269
## 10  1617    79     5   225     6   111 0.280
## # … with 2,655 more rows

# or
batpos %>% 
  select_at(vars(contains("B")), ~ tolower(.))

## # A tibble: 2,665 x 7
##       ab   x2b   x3b   rbi    sb    bb    ba
##    <int> <int> <int> <int> <int> <int> <dbl>
##  1 12364   624    98  2297   240  1402 0.305
##  2  2044   109    23   242    22   133 0.256
##  3   181     3     0     9     0     6 0.138
##  4  1543    62    19   134    11   288 0.274
##  5  8480   574    59  1363   400  1476 0.291
##  6  2913   180    13   488     8   209 0.294
##  7  2125    94    18   216    31   194 0.241
##  8  4019   163    19   366    29   208 0.254
##  9  2604   107    31   188    25   277 0.269
## 10  1617    79     5   225     6   111 0.280
## # … with 2,655 more rows

batpos %>% 
  keep(is.numeric) %>% 
  filter_all(all_vars(. < 1000))

## # A tibble: 316 x 20
##      G.x    AB     R     H   X2B   X3B    HR   RBI    SB    CS    BB    SO
##    <int> <int> <int> <int> <int> <int> <int> <int> <int> <int> <int> <int>
##  1   681   181    12    25     3     0     0     9     0     0     6    74
##  2   574    78     2     4     1     0     0     2     0     0     7    41
##  3   774    17     0     3     0     0     0     2     0     0     2     6
##  4   543    20     0     2     0     0     0     0     0     0     1     7
##  5   737   139    12    28     3     0     3    11     0     0     6    37
##  6   549    35     1     3     1     0     0     0     0     0     0    21
##  7   562   265    19    44     8     0     0    17     0     0     9    77
##  8   592    14     0     2     0     0     0     2     0     0     0     8
##  9   699    38     4     5     0     0     0     0     0     0     3    15
## 10   884    36     3     3     1     0     0     0     0     0     5    12
## # … with 306 more rows, and 8 more variables: G.y <int>, PO <int>,
## #   A <int>, E <int>, DP <int>, BA <dbl>, Err <dbl>, HRR <dbl>

batpos %>% 
  filter_all(any_vars(. > 10000))

## # A tibble: 2,665 x 22
##    playerID   G.x    AB     R     H   X2B   X3B    HR   RBI    SB    CS
##    <chr>    <int> <int> <int> <int> <int> <int> <int> <int> <int> <int>
##  1 aaronha…  3298 12364  2174  3771   624    98   755  2297   240    73
##  2 abbotku…   702  2044   273   523   109    23    62   242    22    11
##  3 abernte…   681   181    12    25     3     0     0     9     0     0
##  4 abramca…   521  1543   246   422    62    19    32   134    11    18
##  5 abreubo…  2425  8480  1453  2470   574    59   288  1363   400   128
##  6 abreujo…   742  2913   398   858   180    13   146   488     8     3
##  7 ackledu…   635  2125   261   512    94    18    46   216    31    12
##  8 adairje…  1165  4019   378  1022   163    19    57   366    29    29
##  9 adamsbo…   797  2604   395   701   107    31    25   188    25    30
## 10 adamsgl…   661  1617   152   452    79     5    34   225     6    10
## # … with 2,655 more rows, and 11 more variables: BB <int>, SO <int>,
## #   POS <chr>, G.y <int>, PO <int>, A <int>, E <int>, DP <int>, BA <dbl>,
## #   Err <dbl>, HRR <dbl>

batpos %>% 
  filter_if(is.numeric, all_vars(. < 600))

## # A tibble: 121 x 22
##    playerID   G.x    AB     R     H   X2B   X3B    HR   RBI    SB    CS
##    <chr>    <int> <int> <int> <int> <int> <int> <int> <int> <int> <int>
##  1 adamste…   574    78     2     4     1     0     0     2     0     0
##  2 agostju…   543    20     0     2     0     0     0     0     0     0
##  3 alberma…   549    35     1     3     1     0     0     0     0     0
##  4 alexado…   562   265    19    44     8     0     0    17     0     0
##  5 alfonan…   592    14     0     2     0     0     0     2     0     0
##  6 axforjo…   543     1     0     0     0     0     0     0     0     0
##  7 ayalalu…   534    14     0     4     1     0     0     0     0     0
##  8 baezda01   533     6     1     1     0     0     0     0     0     0
##  9 bahnsst…   575   479    22    56     8     2     1    19     0     0
## 10 bairdo01   584    52     2     5     1     0     1     4     0     0
## # … with 111 more rows, and 11 more variables: BB <int>, SO <int>,
## #   POS <chr>, G.y <int>, PO <int>, A <int>, E <int>, DP <int>, BA <dbl>,
## #   Err <dbl>, HRR <dbl>

batpos %>% 
  select_at(4:10)

## # A tibble: 2,665 x 7
##        R     H   X2B   X3B    HR   RBI    SB
##    <int> <int> <int> <int> <int> <int> <int>
##  1  2174  3771   624    98   755  2297   240
##  2   273   523   109    23    62   242    22
##  3    12    25     3     0     0     9     0
##  4   246   422    62    19    32   134    11
##  5  1453  2470   574    59   288  1363   400
##  6   398   858   180    13   146   488     8
##  7   261   512    94    18    46   216    31
##  8   378  1022   163    19    57   366    29
##  9   395   701   107    31    25   188    25
## 10   152   452    79     5    34   225     6
## # … with 2,655 more rows
…
## # A tibble: 3 x 22
##   playerID   G.x    AB     R     H   X2B   X3B    HR   RBI    SB    CS
##   <chr>    <int> <int> <int> <int> <int> <int> <int> <int> <int> <int>
## 1 freemfr…  1188  4356   685  1275   285    20   189   684    37    18
## 2 wrighta…  1029  3583   465  1115   175    55    38   553    32    33
## 3 wynnji01  1920  6653  1105  1665   285    39   291   964   225   101
## # … with 11 more variables: BB <int>, SO <int>, POS <chr>, G.y <int>,
## #   PO <int>, A <int>, E <int>, DP <int>, BA <dbl>, Err <dbl>, HRR <dbl>

batpos %>% 
  filter_at(vars(starts_with("X")), any_vars((. %% 50) == 0 & . > 0))

## # A tibble: 74 x 22
##    playerID   G.x    AB     R     H   X2B   X3B    HR   RBI    SB    CS
##    <chr>    <int> <int> <int> <int> <int> <int> <int> <int> <int> <int>
##  1 alexama…   594  1271   166   293    50    12    15   115    37    10
##  2 alouma01  1667  5789   780  1777   236    50    31   427   156    80
##  3 batteea…  1141  3586   393   969   150    17   104   449    13    12
##  4 beckeri…   789  2227   345   570   100    12    45   243    66    26
##  5 bergmda…  1349  2679   312   690   100    16    54   289    19    14
##  6 berryke…  1383  4136   422  1053   150    23    58   343    45    46
##  7 bigbeca…   712  2703   443   826   100    55    12   250   103    68
##  8 bochtbr…  1538  5233   643  1478   250    21   100   658    43    41
##  9 bosleth…   784  1581   183   430    50    12    20   158    47    24
## 10 boyercl…  1725  5780   645  1396   200    33   162   654    41    28
## # … with 64 more rows, and 11 more variables: BB <int>, SO <int>,
## #   POS <chr>, G.y <int>, PO <int>, A <int>, E <int>, DP <int>, BA <dbl>,
## #   Err <dbl>, HRR <dbl>

is_whole <- function(x) if(is.numeric(x)) all(floor(x) == x) else FALSE
#batpos %>% 
#  keep(is_whole) %>% 
#  filter_if(~ all(floor(.) == .), any_vars((. %% 100) == 50))
batpos %>% 
  filter_if(is_whole, any_vars((. %% 100) == 50))

## # A tibble: 380 x 22
##    playerID   G.x    AB     R     H   X2B   X3B    HR   RBI    SB    CS
##    <chr>    <int> <int> <int> <int> <int> <int> <int> <int> <int> <int>
##  1 adamsma…   707  2026   248   539   113     6    96   332     4     4
##  2 alexada…   662  2450   369   811   164    30    61   459    20    28
##  3 alexama…   594  1271   166   293    50    12    15   115    37    10
##  4 alicelu…  1341  3971   551  1031   189    53    47   422    81    50
##  5 allisbo…  1541  5032   811  1281   216    53   256   796    84    50
##  6 almonbi…  1236  3330   390   846   138    25    36   296   128    60
##  7 alouje01  1380  4345   448  1216   170    26    32   377    31    46
##  8 alouma01  1667  5789   780  1777   236    50    31   427   156    80
##  9 amarial…   702  1750   171   404    67    16    21   169    39    10
## 10 aurilri…  1652  5721   745  1576   301    22   186   756    23    18
## # … with 370 more rows, and 11 more variables: BB <int>, SO <int>,
## #   POS <chr>, G.y <int>, PO <int>, A <int>, E <int>, DP <int>, BA <dbl>,
## #   Err <dbl>, HRR <dbl>
…
